Basic tutorial on Quantitative Fate Mapping (QFM) • qfm
…
Read example data

In this example, we demonstrate quantitative fate mapping on lineage
barcode data measured with cell types. First, we apply Phylotime to
reconstruct time-scaled phylogeny from lineage barcodes. Second,
ICE-FASE is applied to extract parameters of progenitor population
dynamics, including commitment times, progenitor population sizes and
commitment biases.

# read mutant allele matrix
cell_allele_table = readr::read_csv("../data/example/mutant_allele_matrix.csv")
cell_allele_table[1:5]

## # A tibble: 1,600 × 5
##    cell         type  Site_1       Site_2 Site_3     
##    <chr>        <chr> <chr>        <chr>  <chr>      
##  1 Type1_Cell1  Type1 Site1_Mut22  0      Site3_Mut28
##  2 Type1_Cell2  Type1 Site1_Mut102 0      Site3_Mut1 
##  3 Type1_Cell3  Type1 Site1_Mut2   0      Site3_Mut1 
##  4 Type1_Cell4  Type1 0            0      Site3_Mut1 
##  5 Type1_Cell5  Type1 0            0      Site3_Mut84
##  6 Type1_Cell6  Type1 0            0      Site3_Mut1 
##  7 Type1_Cell7  Type1 0            0      Site3_Mut8 
##  8 Type1_Cell8  Type1 Site1_Mut4   0      Site3_Mut13
##  9 Type1_Cell9  Type1 Site1_Mut22  0      Site3_Mut28
## 10 Type1_Cell10 Type1 Site1_Mut22  0      Site3_Mut28
## # … with 1,590 more rows
…
